{
  "project_info": {
    "project_number": "176837636209",
    "project_id": "fir-auth-6fdf0",
    "storage_bucket": "fir-auth-6fdf0.appspot.com"
  },
  "client": [
    {
      "client_info": {
        "mobilesdk_app_id": "1:176837636209:android:bd46f4ffa6b9a05d262bd0",
        "android_client_info": {
          "package_name": "com.example.minggu_11"
        }
      },
      "oauth_client": [
        {
          "client_id": "176837636209-4bepq3s3tngg5pj4pem09rfjo6ab2f1l.apps.googleusercontent.com",
          "client_type": 3
        }
      ],
      "api_key": [
        {
          "current_key": "AIzaSyDsZBvGjHcJNZz_Z2mxYtstfTE5KrZp5_I"
        }
      ],
      "services": {
        "appinvite_service": {
          "other_platform_oauth_client": [
            {
              "client_id": "176837636209-4bepq3s3tngg5pj4pem09rfjo6ab2f1l.apps.googleusercontent.com",
              "client_type": 3
            }
          ]
        }
      }
    }
  ],
  "configuration_version": "1"
}